{
    "Categories": "Qt;KDE;X-KDE-settings-plymouth;",
    "KPlugin": {
        "Description": "Choose Plymouth boot splash screen",
        "Description[ar]": "اختر شاشة بدء تشغيل Plymouth",
        "Description[ca@valencia]": "Trieu la pantalla de presentació d'arrancada de Plymouth",
        "Description[ca]": "Trieu la pantalla de presentació d'arrencada del Plymouth",
        "Description[cs]": "Vyberte úvodní startovací obrazovku Plymouth",
        "Description[da]": "Vælg Plymouth boot-opstartsskærm",
        "Description[de]": "Systemstartbildschirm auswählen",
        "Description[en_GB]": "Choose Plymouth boot splash screen",
        "Description[es]": "Escoger la pantalla de arranque de Plymouth",
        "Description[eu]": "Aukeratu Plymouth-en abioko plast-pantaila",
        "Description[fi]": "Valitse Plymouth-käynnistyskuva",
        "Description[fr]": "Sélectionner l'écran de démarrage de Plymouth",
        "Description[hu]": "Válassza ki a Plymouth rendszerindító nyitóképernyőt",
        "Description[ia]": "Selige schermo de Splash de Boot Plymouth",
        "Description[it]": "Scegli la schermata di avvio di Plymouth",
        "Description[ka]": "აირჩიეთ Plymouth-ის ჩატვირთვისას ნაჩვენები სურათი",
        "Description[ko]": "Plymouth 부트 화면 선택",
        "Description[lt]": "Pasirinkti Plymouth paleidimo prisistatymo langą",
        "Description[nl]": "Opstartscherm van Plymouth kiezen",
        "Description[nn]": "Vel Plymouth-velkomstbilete",
        "Description[pl]": "Wybierz ekran powitalny Plymouth",
        "Description[pt]": "Escolha o ecrã inicial de arranque do Plymouth",
        "Description[pt_BR]": "Escolher a tela de inicialização do Plymouth",
        "Description[ro]": "Alege ecranul de demarare Plymouth",
        "Description[ru]": "Выбор экрана загрузки Plymouth",
        "Description[sk]": "Vybrať úvodnú obrazovku Plymouth",
        "Description[sl]": "Izberi pozdravno okno Plymouth ob zagonu",
        "Description[sv]": "Välj Plymouth startskärm",
        "Description[tr]": "Plymouth önyükleme açılış ekranı seçin",
        "Description[uk]": "Вибір зображення для екрана вітання Plymouth",
        "Description[x-test]": "xxChoose Plymouth boot splash screenxx",
        "Description[zh_CN]": "选择 Plymouth 启动屏幕",
        "Icon": "preferences-desktop-display",
        "Name": "Boot Splash Screen",
        "Name[ar]": "شاشة بدء التشغيل",
        "Name[ca@valencia]": "Pantalla de presentació d'arrancada",
        "Name[ca]": "Pantalla de presentació d'arrencada",
        "Name[cs]": "Úvodní startovací obrazovka",
        "Name[da]": "Opstartsbillede under boot",
        "Name[de]": "Systemstartbildschirm",
        "Name[el]": "Αρχική οθόνη εκκίνησης Plymouth",
        "Name[en_GB]": "Boot Splash Screen",
        "Name[es]": "Pantalla de arranque",
        "Name[et]": "Algkäivitusekraan",
        "Name[eu]": "Abioko plast-pantaila",
        "Name[fi]": "Käynnistyskuva",
        "Name[fr]": "Écran de démarrage",
        "Name[gl]": "Pantalla de arranque",
        "Name[hu]": "Rendszerindító nyitóképernyő",
        "Name[ia]": "Schermo de Splash de Boot",
        "Name[id]": "Layar Splash Boot",
        "Name[it]": "Schermata d'avvio",
        "Name[ka]": "ჩატვირთვის სურათი",
        "Name[ko]": "부트 화면",
        "Name[lt]": "OS paleidimo prisistatymo langas",
        "Name[nl]": "Opstartscherm",
        "Name[nn]": "Velkomstbilete ved maskinstart",
        "Name[pa]": "ਬੂਟ ਸਪਲੈਸ਼ ਸਕਰੀਨ",
        "Name[pl]": "Ekran powitalny",
        "Name[pt]": "Ecrã Inicial de Arranque",
        "Name[pt_BR]": "Tela de inicialização",
        "Name[ro]": "Ecran de demarare",
        "Name[ru]": "Выбор экрана загрузки",
        "Name[sk]": "Úvodná obrazovka spustenia",
        "Name[sl]": "Pozdravno okno ob zagonu",
        "Name[sv]": "Startskärm",
        "Name[tr]": "Önyükleme Açılış Ekranı",
        "Name[uk]": "Екран вітання під час завантаження",
        "Name[x-test]": "xxBoot Splash Screenxx",
        "Name[zh_CN]": "启动屏幕",
        "Name[zh_TW]": "開機啟動畫面",
        "ServiceTypes": [
            "KCModule"
        ]
    },
    "X-KDE-Keywords": "plymouth,splash,splash screen,boot splash,boot logo,boot theme,startup,start-up,start up,theme,visual,skin,boot up,boot-up,initialize,initialization",
    "X-KDE-Keywords[ca]": "plymouth,presentació,splash,pantalla de presentació,presentació d'inici,logo d'inici,tema de logo,inici,tema,visual,pell,engegar,engegada,iniciar,inicialització",
    "X-KDE-Keywords[el]": "plymouth,splash,splash screen,boot splash,λογότυπο εκκίνησης,θέμα εκκίνησης,startup,start-up,start up,θέμα,visual,skin,boot up,boot-up,initialize,initialization",
    "X-KDE-Keywords[en_GB]": "plymouth,splash,splash screen,boot splash,boot logo,boot theme,startup,start-up,start up,theme,visual,skin,boot up,boot-up,initialise,initialisation",
    "X-KDE-Keywords[es]": "plymouth,bienvenida,pantalla de bienvenida,pantalla de arranque,logo de arranque,tema de arranque,inicio,iniciar,arranque,tema,visual,piel,arrancar,inicializar,inicialización",
    "X-KDE-Keywords[eu]": "plymouth,plast,plast pantaila,abioko plast,abioko logoa,abioko gaia,abioa,abiokoa,abiatzea,gaia,ikusizkoa,azala,abiatu,abiatzea,hasieratu,hasieratzea",
    "X-KDE-Keywords[fi]": "plymouth,aloitusnäyttö,käynnistysnäyttö,käynnistyslogo,käynnistysteema,käynnistys,teema,buuttaus,buutti",
    "X-KDE-Keywords[fr]": "plymouth, démarrage, écran de démarrage, écran de boot, logo de boot, thème de boot, thème, visuel, habillage, initialiser, initialisation",
    "X-KDE-Keywords[hu]": "plymouth,kezdőkép,betöltőképernyő,indítóképernyő,betöltőlogó,betöltőtéma,indítás,indítás, indítás,téma,vizuális,felület,betöltés,betöltés,inicializálás,inicializálás",
    "X-KDE-Keywords[ia]": "plymouth,splash,schermo de splash,splash de boot,logo de boot,thema de boot,initio, initiar,initia,thema,visual,apparentia,initio de boot,initio de boot,initialisar,initialisation",
    "X-KDE-Keywords[it]": "plymouth,splash,schermata iniziale,schermata di avvio,logo di avvio,tema di avvio,avvio,start up,tema,visuale,skin,boot up,inizializza,inizializzazione",
    "X-KDE-Keywords[ko]": "plymouth,splash,splash screen,boot splash,boot logo,boot theme,startup,start-up,start up,theme,visual,skin,boot up,boot-up,initialize,initialization,시작 화면,부팅,부팅 화면,부트, 부트 화면,부트 로고,부트 테마,테마,스킨,초기화",
    "X-KDE-Keywords[nl]": "plymouth,opstart,opstartscherm,scherm bij booten,boot-logo,boot-thema,opstarten,opstartthema,visueel,skin,boot up,boot-up,initialiseren,initialisatie",
    "X-KDE-Keywords[pl]": "plymouth,ekran powitalny,ekran powitalny,ekran rozruchowy,logo rozruchu,wygląd rozruchu,uruchamianie,uruchamianie,uruchamianie,wygląd,wygląd,skórka,rozruch,rozruch,przygotowywanie,przygotowywanie",
    "X-KDE-Keywords[pt]": "plymouth,inicial,ecrã inicial,ecrã de arranque,logótipo de arranque,tema de arranque,arranque,início,tema,visual,inicializar,inicialização",
    "X-KDE-Keywords[pt_BR]": "plymouth,imagem,tela de apresentação,logotipo de boot,tela de inicialização,tema de boot,inicialização, início,tema,visual,pele,inicializar",
    "X-KDE-Keywords[sk]": "plymouth,úvodná,úvodná obrazovka,obrazovka spustenia,logo spustenia,téma spustenia,spustenie,spustenie, spustenie,téma,vzhľad,skin,spustenie,spustenie,inicializovať,inicializácia",
    "X-KDE-Keywords[sl]": "plymouth,splash,splash screen,boot splash,boot logo,boot theme,zagon,zagon sistema,zagon računalnika,tema,visual,preobleka,boot up,boot-up,postavi začetne vrednosti,inicializacija",
    "X-KDE-Keywords[sv]": "plymouth,start,startskärm,startlogotyp,starttema,tema,visuell,skal,starta,initiera,initiering",
    "X-KDE-Keywords[uk]": "plymouth,splash,splash screen,boot splash,boot logo,boot theme,startup,start-up,start up,theme,visual,skin,boot up,boot-up,initialize,initialization,плімут,вітання,вітальна сторінка,вітальне вікно,завантаження,вітальний екран,вітання при завантаженні,логотип завантаження,тема завантаження,запуск,тема,візуальний,шкірка,оболонка,завантаження,ініціалізація,започаткування",
    "X-KDE-Keywords[x-test]": "xxplymouthxx,xxsplashxx,xxsplash screenxx,xxboot splashxx,xxboot logoxx,xxboot themexx,xxstartupxx,xxstart-upxx,xxstart upxx,xxthemexx,xxvisualxx,xxskinxx,xxboot upxx,xxboot-upxx,xxinitializexx,xxinitializationxx",
    "X-KDE-Keywords[zh_CN]": "plymouth,splash,splash screen,boot splash,boot logo,boot theme,startup,start-up,start up,theme,visual,skin,boot up,boot-up,initialize,initialization,欢迎屏幕,启动屏幕,启动图标,启动标识,启动主题,启动,主题,视觉效果,视觉,皮肤,初始化",
    "X-KDE-ParentApp": "kcontrol",
    "X-KDE-System-Settings-Parent-Category": "appearance",
    "X-KDE-Weight": 200
}
